000 (170464.000.000) 07/29 08:41:16 Job submitted from host: <130.199.48.60:9618?addrs=130.199.48.60-9618&noUDP&sock=11899_fb97_3>
...
001 (170464.000.000) 07/29 08:41:47 Job executing on host: <130.199.200.105:9618?addrs=130.199.200.105-9618&noUDP&sock=115346_a700_3>
...
006 (170464.000.000) 07/29 08:41:53 Image size of job updated: 1000
	0  -  MemoryUsage of job (MB)
	0  -  ResidentSetSize of job (KB)
...
005 (170464.000.000) 07/29 08:41:53 Job terminated.
	(1) Normal termination (return value 0)
		Usr 0 00:00:02, Sys 0 00:00:02  -  Run Remote Usage
		Usr 0 00:00:00, Sys 0 00:00:00  -  Run Local Usage
		Usr 0 00:00:02, Sys 0 00:00:02  -  Total Remote Usage
		Usr 0 00:00:00, Sys 0 00:00:00  -  Total Local Usage
	0  -  Run Bytes Sent By Job
	0  -  Run Bytes Received By Job
	0  -  Total Bytes Sent By Job
	0  -  Total Bytes Received By Job
	Partitionable Resources :    Usage  Request Allocated 
	   Cpus                 :        0        1         1 
	   Disk (KB)            :     1000     1000   5106410 
	   Memory (MB)          :        0     2000      2048 
...
